1 10 20
100 200 125
201 210 89
900 1000 174
214986 815012 509
273621 352866 441
403735 743438 509
144873 800283 509
923207 980421 507
277788 447406 449
419651 706563 509
290386 927378 525
61717 349505 443
262104 656915 509
240105 576745 470
304521 967735 525
118974 825641 509
338964 537569 470
357670 819317 509
148534 854241 525
207107 572655 470
936358 976389 507
81231 464749 449
290877 902161 525
61653 568664 470
863771 995507 507
275228 305354 389
138937 285893 443
367071 457013 449
401040 607175 470
547962 882979 525
425900 666935 509
222825 764863 509
204504 556346 470
122533 572950 470
209393 704879 509
155442 294261 443
699986 759010 504
750877 990863 525
175376 326734 443
39147 559527 470
322241 348959 441
122338 344500 443
2101 225775 386
579350 917344 525
127312 832949 509
773054 800324 468
23149 308452 443
27160 537917 470
93700 174655 383
600109 798578 509
898251 894370 370
468225 598237 470
167585 733306 509
103305 857164 525
60040 177037 383
382280 410515 449
40200 755014 509
18822 42300 324
494994 598172 470
327943 959644 525
239688 274173 407
548139 615201 447
811525 153119 509
575299 905224 525
175408 841977 525
218008 740228 509
583982 686232 509
265771 852669 525
470179 933742 525
122935 993781 525
47654 647215 509
687414 890265 525
802668 909086 525
243919 297662 407
21463 717767 509
139809 261151 443
755010 991939 525
803464 809289 406
422333 898792 525
222894 778514 509
440901 588405 470
32947 172387 383
399820 641337 509
575079 952362 525
589501 869998 525
83065 517213 470
637155 973329 525
718832 954027 525
476955 882415 525
765893 903878 525
194722 419906 449
186661 679233 509
488522 689120 509
504329 625657 470
387315 727222 509
404171 489924 449
437117 682327 509
662310 837868 525
128877 836937 509
221140 412947 449
10216 718378 509
738353 869737 525
983544 971389 427
337969 380165 441
103862 448344 449
284043 643065 509
523767 963275 525
343930 727092 509
362463 966001 525
352749 867520 525
603890 756920 509
286217 357444 441
533959 708241 509
59383 124086 354
51237 662835 509
280523 895417 525
61453 533080 470
279359 559201 470
504469 617327 470
467017 939365 525
223408 235393 443
273365 624286 470
700887 968215 525
457 181094 383
330678 353205 441
48614 934567 525
624329 920262 525
332571 734989 509
373279 968425 525
145465 391953 443
186680 424515 449
172 555087 470
719759 834445 468
559373 738432 509
498738 965977 525
201370 205449 355
236351 829734 509
451442 474734 444
312154 989394 525
632535 642832 416
195354 342600 443
91604 966928 525
629820 826592 504
598245 813703 509
199871 205657 355
138591 743709 509
298796 906540 525
626300 652966 509
647446 726543 504
364732 613423 470
225282 570181 470
328997 975836 525
803731 914119 525
226274 941482 525
88223 307330 443
383310 649929 509
283576 474913 449
131063 427600 449
291188 931733 525
694459 638630 442
749751 238760 509
886106 762142 525
517246 642611 509
203388 491378 449
369474 521162 470
899808 515894 525
181906 384967 443
89477 457040 449
5247 595890 470
702862 958156 525
466119 22392 449
723141 665357 504
176213 703604 509
515031 981604 525
635338 723694 504
134439 899293 525
962453 20546 525
175640 479699 449
177361 379027 443
485281 546834 470
414393 899294 525
576933 596298 434
798465 666409 504
567543 803711 509
776504 270405 509
761868 242623 509
807000 999213 525
907979 497417 525
702817 423010 509
479022 338155 449
660909 127665 509
751652 623362 509
662414 927291 525
617266 353980 470
820522 102547 509
900813 234916 525
516045 991950 525
345418 314511 384
172565 427165 449
118222 949068 525
697569 394294 509
705895 504570 509
393507 613874 470
1987 96325 351
551088 995212 525
948683 211997 525
637082 700336 442
349564 299496 441
141832 481034 449
653475 962354 525
97785 68494 351
711474 613830 509
574648 571096 372
928340 261417 525
998261 560766 525
724689 210035 509
955060 430584 525
228809 348567 443
558662 745000 509
959095 109751 525
740212 907779 525
835951 891498 525
122320 699719 509
705199 778355 468
180753 872878 525
254914 278538 407
455576 966387 525
406572 30225 443
51689 334912 443
805845 49950 509
409882 530535 470
259984 364942 441
961118 488793 525
227714 519781 470
747997 701013 504
143736 2414 375
122997 493891 449
893912 245316 525
193611 599111 470
537876 888567 525
471989 792789 509
167105 441770 449
759177 87881 509
471994 325070 449
936996 277839 525
375019 346879 410
322578 149207 443
711820 283697 509
152204 453738 449
317682 900200 525
154752 975621 525
902614 277748 525
469512 796526 509
37269 663122 509
909841 575144 525
65895 896034 525
367933 232999 441
337804 641314 509
